module github.com/dni9/go-auth

go 1.16

require (
	github.com/andybalholm/brotli v1.0.3 // indirect
	github.com/dgrijalva/jwt-go v3.2.0+incompatible
	github.com/gofiber/fiber/v2 v2.11.0
	github.com/klauspost/compress v1.13.0 // indirect
	golang.org/x/crypto v0.0.0-20210513164829-c07d793c2f9a
	golang.org/x/sys v0.0.0-20210603125802-9665404d3644 // indirect
	gorm.io/driver/mysql v1.1.0
	gorm.io/gorm v1.21.10
)
